Advanced Data Science in R: Machine Learning review with an intro to `tidymodels`
…
Apply to training dataset, just to see what happens. This is not a necessary step, but I often like to check to see that everything is as expected. For example, notice the names of the variables are the same as before but they have been transformed, eg. sqft_living is actually log base 10 of square feet of living. This confused me the first time, so I was glad I ran this extra step. Better to be confused now than later in the process .

house_recipe %>% 
  prep(house_training) %>%
  # using bake(new_data = NULL) gives same result as juice()
  # bake(new_data = NULL)
  juice() 

# A tibble: 16,210 x 36
   id        date       bedrooms bathrooms sqft_living sqft_lot floors
   <fct>     <date>        <int>     <dbl>       <dbl>    <dbl>  <dbl>
 1 71293005 2014-10-13        3      1           3.07     3.75      1
 2 64141001 2014-12-09        3      2.25        3.41     3.86      2
 3 56315004 2015-02-25        2      1           2.89     4         1
 4 24872008 2014-12-09        4      3           3.29     3.70      1
 5 19544005 2015-02-18        3      2           3.23     3.91      1
 6 72375503 2014-05-12        4      4.5         3.73     5.01      1
 7 13214000 2014-06-27        3      2.25        3.23     3.83      2
 8 20080002 2015-01-15        3      1.5         3.03     3.99      1
 9 24146001 2015-04-15        3      1           3.25     3.87      1
10 37935001 2015-03-12        3      2.5         3.28     3.82      2
#  with 16,200 more rows, and 29 more variables: waterfront <dbl>,
#   view <dbl>, sqft_above <dbl>, zipcode <fct>, lat <dbl>,
#   long <dbl>, log_price <dbl>, basement <dbl>, renovated <dbl>,
#   age_at_sale <dbl>, condition_X2 <dbl>, condition_X3 <dbl>,
#   condition_X4 <dbl>, condition_X5 <dbl>, grade_X7 <dbl>,
#   grade_X8 <dbl>, grade_X9 <dbl>, grade_high <dbl>,
#   date_month_Feb <dbl>, date_month_Mar <dbl>, date_month_Apr <dbl>,
#   date_month_May <dbl>, date_month_Jun <dbl>, date_month_Jul <dbl>,
#   date_month_Aug <dbl>, date_month_Sep <dbl>, date_month_Oct <dbl>,
…
Now we are finally ready to fit the model! After all that work, this part seems easy. We first use the fit() function to fit the model, telling it which data set we want to fit the model to. Then we use some other functions to display the results nicely.

house_lm_fit <- 
  # Tell it the workflow
  house_lm_wf %>% 
  # Fit the model to the training data
  fit(house_training)

# Display the results nicely
house_lm_fit %>% 
  pull_workflow_fit() %>% 
  tidy() %>% 
  mutate(across(where(is.numeric), ~round(.x,3)))

# A tibble: 31 x 5
   term        estimate std.error statistic p.value
   <chr>          <dbl>     <dbl>     <dbl>   <dbl>
 1 (Intercept)    4.01      0.048     83.4        0
 2 bedrooms      -0.018     0.002    -11.2        0
 3 bathrooms      0.036     0.003     14.3        0
 4 sqft_living    0.294     0.025     11.7        0
 5 sqft_lot      -0.038     0.003    -11.0        0
 6 floors         0.021     0.003      6.87       0
 7 waterfront     0.194     0.013     15.0        0
 8 view          -0.061     0.004    -15.6        0
 9 sqft_above     0.149     0.025      5.99       0
10 basement      -0.042     0.005     -9.14       0
#  with 21 more rows
…
# performance metrics from testing data
collect_metrics(house_lm_test)

# A tibble: 2 x 4
  .metric .estimator .estimate .config             
  <chr>   <chr>          <dbl> <chr>               
1 rmse    standard       0.135 Preprocessor1_Model1
2 rsq     standard       0.655 Preprocessor1_Model1

# predictions from testing data
collect_predictions(house_lm_test)

# A tibble: 5,403 x 5
   id               .pred  .row log_price .config             
   <chr>            <dbl> <int>     <dbl> <chr>               
 1 train/test split  5.58    12      5.67 Preprocessor1_Model1
 2 train/test split  5.53    17      5.60 Preprocessor1_Model1
 3 train/test split  5.90    27      5.97 Preprocessor1_Model1
 4 train/test split  5.58    29      5.64 Preprocessor1_Model1
 5 train/test split  5.67    31      5.76 Preprocessor1_Model1
 6 train/test split  5.88    38      5.81 Preprocessor1_Model1
 7 train/test split  5.69    40      5.78 Preprocessor1_Model1
 8 train/test split  5.79    41      5.80 Preprocessor1_Model1
 9 train/test split  5.77    42      5.89 Preprocessor1_Model1
10 train/test split  5.66    44      5.84 Preprocessor1_Model1
#  with 5,393 more rows
…
Then look at the cross-validated results in a table.

# The rmse for each fold:
house_lasso_tune %>% 
  select(id, .metrics) %>% 
  unnest(.metrics) %>% 
  filter(.metric == "rmse")

# A tibble: 100 x 6
   id     penalty .metric .estimator .estimate .config              
   <chr>    <dbl> <chr>   <chr>          <dbl> <chr>                
 1 Fold1 1.00e-10 rmse    standard       0.135 Preprocessor1_Model01
 2 Fold1 3.36e-10 rmse    standard       0.135 Preprocessor1_Model02
 3 Fold1 1.13e- 9 rmse    standard       0.135 Preprocessor1_Model03
 4 Fold1 3.79e- 9 rmse    standard       0.135 Preprocessor1_Model04
 5 Fold1 1.27e- 8 rmse    standard       0.135 Preprocessor1_Model05
 6 Fold1 4.28e- 8 rmse    standard       0.135 Preprocessor1_Model06
 7 Fold1 1.44e- 7 rmse    standard       0.135 Preprocessor1_Model07
 8 Fold1 4.83e- 7 rmse    standard       0.135 Preprocessor1_Model08
 9 Fold1 1.62e- 6 rmse    standard       0.135 Preprocessor1_Model09
10 Fold1 5.46e- 6 rmse    standard       0.135 Preprocessor1_Model10
#  with 90 more rows
…
Computational engine: glmnet 

Now we could fit this to the training data and look at the resulting model. We can see a few of the terms have coefficients of 0 (although not as many as I would have expected).

house_lasso_final_mod <- house_lasso_final_wf %>% 
  fit(data = house_training)

house_lasso_final_mod %>% 
  pull_workflow_fit() %>% 
  tidy()

# A tibble: 31 x 3
   term        estimate  penalty
   <chr>          <dbl>    <dbl>
 1 (Intercept)   4.12   0.000695
 2 bedrooms     -0.0160 0.000695
 3 bathrooms     0.0348 0.000695
 4 sqft_living   0.326  0.000695
 5 sqft_lot     -0.0366 0.000695
 6 floors        0.0209 0.000695
 7 waterfront    0.186  0.000695
 8 view         -0.0617 0.000695
 9 sqft_above    0.124  0.000695
10 basement     -0.0379 0.000695
#  with 21 more rows
…
